Long vs Wide Data
…
Here we have used the argument names_prefix, this tells R if there is some sort of text at the start of the column name that you don’t want to be included in the values for that new column. So in our case we only really need the number from the column name and not the “Height_” part. So we can use this argument to remove that from the text, leaving just the number.

Before doing any sort of reshaping of your data it is always important to think about how many rows and how many columns should the resulting transformation contain. So in our case we had 10 rows and 4 columns, 3 of which are being pivoted into longer format. So column wise we should still have our Plot_ID column, and the 2 columns resulting from the pivot. One with the time of measurement and one with the value of that measurement. And we had 3 measurements for 10 observations (rows), with that set to become one measurement per row, that means we should have 30 rows (3*10). So we should have 30 rows and 3 columns when our data is in long format.

It is important to think this through as checking the numbers of rows and columns is a good step in checking your transformation has worked as intended

data_long1 <- data_wide1%>%
  pivot_longer(cols = Height_1:Height_3,
               names_to = "Height_time",
               values_to = "Value",
               names_prefix = "Height_")

data_long1

## # A tibble: 30 x 3
##    Plot_ID Height_time Value
##      <int> <chr>       <int>
##  1       1 1              18
##  2       1 2              21
##  3       1 3              25
##  4       2 1              14
##  5       2 2              18
##  6       2 3              25
##  7       3 1              15
##  8       3 2              19
##  9       3 3              26
## 10       4 1               6
## # ... with 20 more rows

Success, we have a dataset now of 30 rows and 3 columns. One row per time point within a plot.

Let’s move onto our more complicated example where we have 2 different measures recorded at 3 separate time points.

If we do the same thing again but of course extend our column selection to Pests_3. You can see that what we end up with is certainly in long format but the length is defined by time point and measure. Therefore 2 measures * 3 time points * 10 observations means we have 60 rows. You can see how this could get quite extensive if we were to do this for more and more observations/timepoints/measures. We could get some extraordinarily long datasets.

data_long2 <- data_wide2%>%
  pivot_longer(cols = Height_1:Pests_3,
               names_to = "Time_Measure",
               values_to = "Value")

data_long2

## # A tibble: 60 x 3
##    Plot_ID Time_Measure Value
##      <int> <chr>        <int>
##  1       1 Height_1        11
##  2       1 Height_2        18
##  3       1 Height_3        20
##  4       1 Pests_1          8
##  5       1 Pests_2         16
##  6       1 Pests_3         11
##  7       2 Height_1        14
##  8       2 Height_2        20
##  9       2 Height_3        27
## 10       2 Pests_1          4
## # ... with 50 more rows
…
We keep cols the same, but in names_to we need to do something a little special. You need to include the “.value” string as one of your arguments. In our case we specify this first as in our column names the measure comes first in the naming system. “.value” tells R that part of the column name specifies a measurement and that these should take their own new columns rather than being spliced into one long column. In other words it will see that we have “Height_” and “Pests_” and recognise that these should be separate columns in your output.

We also have to tell R what it is that separates these pieces of information in the column names, in our case it is an underscore. So we supply that in quotations to the names_sep argument.

Note that we do not need to specify the values_to argument as R will name these columns based upon the existing column names. Though we can add it in if we want them to be called something different.

data_long3 <- data_wide2%>%
  pivot_longer(cols = Height_1:Pests_3,
               names_to = c(".value", "Time"),
               names_sep = "_")

data_long3

## # A tibble: 30 x 4
##    Plot_ID Time  Height Pests
##      <int> <chr>  <int> <int>
##  1       1 1         11     8
##  2       1 2         18    16
##  3       1 3         20    11
##  4       2 1         14     4
##  5       2 2         20    12
##  6       2 3         27     4
##  7       3 1          9     8
##  8       3 2         10    19
##  9       3 3         14     6
## 10       4 1          8     6
## # ... with 20 more rows
…
